2018-02-22 10:17:03 158【一般訊息】查詢訂單狀態  訂單編號 : N0002558
2018-02-22 10:17:03 259【一般訊息】傳送的JSON : {
  "OpenKey": "$2a$10$bOXTEKvzsGwzM0iTV.2cmebftOWrOJDtVpf04uCVwjBWbFxmHqy2a",
  "Action": "get",
  "OrderData": {
    "StoreName": "ptbus",
    "OrderId": "N0002558"
  }
}
2018-02-22 10:17:03 422【一般訊息】查詢訂單狀態回傳 : {"date":"2018-02-22 10:17:41","status_code":"0","status":null,"order_id":"1611270143"}



2018-02-22 10:17:03 457【一般訊息】date : 2018-02-22 10:17:41
2018-02-22 10:17:03 458【一般訊息】status_code : 0
2018-02-22 10:17:03 458【一般訊息】status : 
2018-02-22 10:17:03 458【一般訊息】order_id : 1611270143
2018-02-22 10:17:04 237【一般訊息】查詢訂單狀態  訂單編號 : N0002556
2018-02-22 10:17:04 238【一般訊息】傳送的JSON : {
  "OpenKey": "$2a$10$alJhV0PByYXpE1is7Jx4desgGY9SyifOSBYqLcwuym3QFezeC8Lj2",
  "Action": "get",
  "OrderData": {
    "StoreName": "ptbus",
    "OrderId": "N0002556"
  }
}
2018-02-22 10:17:04 353【一般訊息】查詢訂單狀態回傳 : {"date":"2018-02-22 10:17:42","status_code":"0","status":null,"order_id":"1611270144"}



2018-02-22 10:17:04 354【一般訊息】date : 2018-02-22 10:17:42
2018-02-22 10:17:04 354【一般訊息】status_code : 0
2018-02-22 10:17:04 355【一般訊息】status : 
2018-02-22 10:17:04 355【一般訊息】order_id : 1611270144
2018-02-22 10:17:05 141【一般訊息】查詢訂單狀態  訂單編號 : N0002555
2018-02-22 10:17:05 142【一般訊息】傳送的JSON : {
  "OpenKey": "$2a$10$BuM5tpAEd.CZ2PfDT9la6eI6x./rQcF5h.C8TE0iHihkZi1jD7Z9q",
  "Action": "get",
  "OrderData": {
    "StoreName": "ptbus",
    "OrderId": "N0002555"
  }
}
2018-02-22 10:17:05 257【一般訊息】查詢訂單狀態回傳 : {"date":"2018-02-22 10:17:42","error":"no order id"}



2018-02-22 10:17:05 257【一般訊息】date : 2018-02-22 10:17:42
2018-02-22 10:17:05 257【一般訊息】status_code : 
2018-02-22 10:17:05 258【一般訊息】status : 
2018-02-22 10:17:05 258【一般訊息】order_id : 
2018-02-22 10:17:05 951【一般訊息】查詢訂單狀態  訂單編號 : N0002525
2018-02-22 10:17:05 952【一般訊息】傳送的JSON : {
  "OpenKey": "$2a$10$AAsH58E0hCcWk9X7UfpfdO/GkjIvi6zuT3xkajIA5DSo.1heume7O",
  "Action": "get",
  "OrderData": {
    "StoreName": "ptbus",
    "OrderId": "N0002525"
  }
}
2018-02-22 10:17:06 064【一般訊息】查詢訂單狀態回傳 : {"date":"2018-02-22 10:17:43","error":"no order id"}



2018-02-22 10:17:06 065【一般訊息】date : 2018-02-22 10:17:43
2018-02-22 10:17:06 065【一般訊息】status_code : 
2018-02-22 10:17:06 065【一般訊息】status : 
2018-02-22 10:17:06 066【一般訊息】order_id : 
2018-02-22 10:17:06 751【一般訊息】查詢訂單狀態  訂單編號 : N0001269
2018-02-22 10:17:06 752【一般訊息】傳送的JSON : {
  "OpenKey": "$2a$10$SQCc.F0t1vSjIcPVyBgzg.RW6xW4VmVULUEME4Av6bI9fVqUsIHYW",
  "Action": "get",
  "OrderData": {
    "StoreName": "ptbus",
    "OrderId": "N0001269"
  }
}
2018-02-22 10:17:06 867【一般訊息】查詢訂單狀態回傳 : {"date":"2018-02-22 10:17:44","error":"no order id"}



2018-02-22 10:17:06 868【一般訊息】date : 2018-02-22 10:17:44
2018-02-22 10:17:06 869【一般訊息】status_code : 
2018-02-22 10:17:06 869【一般訊息】status : 
2018-02-22 10:17:06 870【一般訊息】order_id : 
2018-02-22 10:17:08 115【一般訊息】查詢訂單狀態  訂單編號 : N0002558
2018-02-22 10:17:08 115【一般訊息】傳送的JSON : {
  "OpenKey": "$2a$10$s6kaT9o1sb6xeId.7LXrSev1BFafNdo5y58TSLqFDwx0pxbJEN0TO",
  "Action": "get",
  "OrderData": {
    "StoreName": "ptbus",
    "OrderId": "N0002558"
  }
}
2018-02-22 10:17:08 228【一般訊息】查詢訂單狀態回傳 : {"date":"2018-02-22 10:17:45","status_code":"0","status":null,"order_id":"1611270143"}



2018-02-22 10:17:08 230【一般訊息】date : 2018-02-22 10:17:45
2018-02-22 10:17:08 230【一般訊息】status_code : 0
2018-02-22 10:17:08 231【一般訊息】status : 
2018-02-22 10:17:08 232【一般訊息】order_id : 1611270143
2018-02-22 10:17:09 075【一般訊息】查詢訂單狀態  訂單編號 : N0002556
2018-02-22 10:17:09 076【一般訊息】傳送的JSON : {
  "OpenKey": "$2a$10$bi7tLhTx4WoPLEDuqu/8ke2X77AdbAvTL3SISRCmF908Pr97oIv2u",
  "Action": "get",
  "OrderData": {
    "StoreName": "ptbus",
    "OrderId": "N0002556"
  }
}
2018-02-22 10:17:09 188【一般訊息】查詢訂單狀態回傳 : {"date":"2018-02-22 10:17:46","status_code":"0","status":null,"order_id":"1611270144"}



2018-02-22 10:17:09 189【一般訊息】date : 2018-02-22 10:17:46
2018-02-22 10:17:09 189【一般訊息】status_code : 0
2018-02-22 10:17:09 189【一般訊息】status : 
2018-02-22 10:17:09 190【一般訊息】order_id : 1611270144
2018-02-22 10:17:09 965【一般訊息】查詢訂單狀態  訂單編號 : N0002555
2018-02-22 10:17:09 966【一般訊息】傳送的JSON : {
  "OpenKey": "$2a$10$Zue8W2HZTCIqqDVo4Lha0OOwPpj/2vSdI91lsmp7kSimPebcGtmY6",
  "Action": "get",
  "OrderData": {
    "StoreName": "ptbus",
    "OrderId": "N0002555"
  }
}
2018-02-22 10:17:10 082【一般訊息】查詢訂單狀態回傳 : {"date":"2018-02-22 10:17:47","error":"no order id"}



2018-02-22 10:17:10 083【一般訊息】date : 2018-02-22 10:17:47
2018-02-22 10:17:10 083【一般訊息】status_code : 
2018-02-22 10:17:10 084【一般訊息】status : 
2018-02-22 10:17:10 084【一般訊息】order_id : 
2018-02-22 10:17:10 719【一般訊息】查詢訂單狀態  訂單編號 : N0002525
2018-02-22 10:17:10 720【一般訊息】傳送的JSON : {
  "OpenKey": "$2a$10$8TdIW6GNpYmWq7hKteA21usl3aOeUbiZVe.XFtR3HpaVo9rfwv9HS",
  "Action": "get",
  "OrderData": {
    "StoreName": "ptbus",
    "OrderId": "N0002525"
  }
}
2018-02-22 10:17:10 834【一般訊息】查詢訂單狀態回傳 : {"date":"2018-02-22 10:17:48","error":"no order id"}



2018-02-22 10:17:10 834【一般訊息】date : 2018-02-22 10:17:48
2018-02-22 10:17:10 834【一般訊息】status_code : 
2018-02-22 10:17:10 834【一般訊息】status : 
2018-02-22 10:17:10 835【一般訊息】order_id : 
2018-02-22 10:17:11 656【一般訊息】查詢訂單狀態  訂單編號 : N0001269
2018-02-22 10:17:11 657【一般訊息】傳送的JSON : {
  "OpenKey": "$2a$10$xjvdhXL5mYu0DIqNPPHqEuIjyewq3uDoR1RAkshVLRAwIF4..xSwe",
  "Action": "get",
  "OrderData": {
    "StoreName": "ptbus",
    "OrderId": "N0001269"
  }
}
2018-02-22 10:17:11 773【一般訊息】查詢訂單狀態回傳 : {"date":"2018-02-22 10:17:49","error":"no order id"}



2018-02-22 10:17:11 774【一般訊息】date : 2018-02-22 10:17:49
2018-02-22 10:17:11 774【一般訊息】status_code : 
2018-02-22 10:17:11 774【一般訊息】status : 
2018-02-22 10:17:11 774【一般訊息】order_id : 
